{
  "name": "rolltable-from-sidebar",
  "title": "Rolltable from sidebar",
  "description": "<p>This module allows rolling rollable tables directly from the sidebar.</p>",
  "version": "0.1.0",
  "author": "U~man",
  "scripts": [],
  "esmodules": [
    "rolltable.js"
  ],
  "styles": ["rolltable.css"],
  "packs": [],
  "languages": [
    {
      "lang": "en",
      "name": "English",
      "path": "lang/en.json"
    }
  ],
  "url": "https://gitlab.com/mesfoliesludiques/foundryvtt-rolltable-from-sidebar",
  "manifest": "https://gitlab.com/mesfoliesludiques/foundryvtt-rolltable-from-sidebar/-/raw/master/module.json",
  "download": "https://gitlab.com/mesfoliesludiques/foundryvtt-rolltable-from-sidebar/-/archive/master/foundryvtt-rolltable-from-sidebar-master.zip",
  "compatibleCoreVersion": "0.9.0",
  "minimumCoreVersion": "0.9.0"
}
